EDA
…
datos = load("~/Escritorio/gjuhuiiugiu/TP-2-labodatos-main/tp2.RData")

#creo la variable dia laborable y lleno los nulos
clima_ecobici = clima_ecobici %>%
  mutate(
    dia_laborable = if_else(lubridate::wday(date)==1| lubridate::wday(date)==7,FALSE, TRUE),
    prcp = if_else(is.na(prcp),0,prcp)
  )

clima_ecobici

# A tibble: 365 × 10
   date        tavg  tmin  tmax  prcp  wdir  wspd  pres     n dia_laborable
   <date>     <dbl> <dbl> <dbl> <dbl> <dbl> <dbl> <dbl> <int> <lgl>        
 1 2022-01-01  24.8  20.7  29.1   2.3   344  14.4 1004.  2233 FALSE        
 2 2022-01-02  24.7  19.2  29.7   1.5    16   9.6 1005.  3162 FALSE        
 3 2022-01-03  27.9  24.1  31.7   6.7    81  12.5 1007.  7389 TRUE         
 4 2022-01-04  28.2  24.8  32.6   3.9   236  18.3 1006.  7215 TRUE         
 5 2022-01-05  21.7  16.7  31.7   0     118  24.2 1016.  7611 TRUE         
 6 2022-01-06  22.1  18.8  25.7   0      78  22.7 1017.  8336 TRUE         
 7 2022-01-07  23.8  20.6  26.6   0      67  20.6 1016.  8079 TRUE         
 8 2022-01-08  24.4  21.8  27.1   0      79  21.9 1016.  3529 FALSE        
 9 2022-01-09  24.9  20.9  29.5   0      64  19.6 1015.  3453 FALSE        
10 2022-01-10  26.9  22.8  31.3   0      44  11.5 1012.  7825 TRUE         
# ℹ 355 more rows
…
